﻿Chester Drawers|4234396111|Drawers@BoPeep.com|1234567890120987|12/2018
Bob Bob|1020301928|BobIsCool@bob.com|6011000997235373|10/2015
Ron Jerimy|2019283718|AwesomeEmail@awesome.co|373953244361001|09/2019
Brandon Johns|8654058178|jbrandon@yahoo.com|4003000123456781|10/2017
Brandon Johns|8654058178|jbrandon@yahoo.com|5499990123456781|11/2020
Null Fakerson|0000000000|bademail.com@yahoo|0000000000000001|01/2001
Nice John|4050018178|niceemail@yahoo.com|298376182930928|02/2019
Satau Kazama|2928336273|konosuba@newworld.com|5478965412365478|04/2021
Bo Nub|0219903918|bonub@email.com|478965412010236|05/2012
Keem Star|4587452016|keemstar@star.com|5463954102569745|02/2017
Bear Bearstin|4852169002|bear@bear.com|5555555555555555|11/2018
Last First|0023125987|email@email.com|988955200145698|12/2019